{
  "enabledManagers": [
    "nix",
    "dockerfile",
    "gitlabci",
    "regex",
    "terraform",
    "ansible",
    "ansible-galaxy"
  ],
  "nix": {
    "enabled": true
  },
  "lockFileMaintenance": {
    "enabled": true
  },
  "pre-commit": {
    "enabled": true
  },
  "ansible-galaxy": {
    "fileMatch": [
      "^ansible/requirements.yaml$"
    ]
  },
  "postUpgradeTasks": {
    "commands": ["bash ci/create_chore_release_note.sh"],
    "executionMode": "branch"
  },
  "customManagers": [
    {
      "customType": "regex",
      "fileMatch": ["^nix/yk8s/.*\\.nix$"],
      "matchStrings": [
        "# renovate: datasource=(?<datasource>.*?) depName=(?<depName>.*?) registryUrl=(?<registryUrl>.*?)\\n\\s*default\\s=\\s\"(?<currentValue>.*?)\";\\n"
      ],
      "datasourceTemplate": "helm",
      "versioningTemplate": "semver"
    }
  ]
}
